…
Using `group_by` and `summarise` I can now calculate mean values for each year. Remember there was one missing value in our dataset. Because of the seasonality of temperature, if we use `na.rm=T` when calculating the mean temperature for the year, we will definitely have a biased estimate of the mean. Therefore it is probably safer to not use this option for calculating the mean, and leaving the mean for this year as an NA. 


```r
oxford_data %>%
  group_by(yyyy) %>%
    summarise(tmean=mean(tmean))
```

```
## `summarise()` ungrouping output (override with `.groups` argument)
```

```
## # A tibble: 168 x 2
##     yyyy tmean
##    <int> <dbl>
##  1  1853  8.97
##  2  1854  9.69
##  3  1855  8.83
##  4  1856  9.53
##  5  1857 10.3 
##  6  1858  9.50
##  7  1859 10.1 
##  8  1860 NA   
##  9  1861  9.76
## 10  1862  9.90
## # ... with 158 more rows
```
…
```r
oxford_data %>%
  group_by(yyyy) %>%
    summarise(tmean=mean(tmean)) %>%
        mutate(anomaly=tmean-refmean$mean)
```

```
## `summarise()` ungrouping output (override with `.groups` argument)
```

```
## # A tibble: 168 x 3
##     yyyy tmean anomaly
##    <int> <dbl>   <dbl>
##  1  1853  8.97  -1.42 
##  2  1854  9.69  -0.699
##  3  1855  8.83  -1.56 
##  4  1856  9.53  -0.853
##  5  1857 10.3   -0.116
##  6  1858  9.50  -0.891
##  7  1859 10.1   -0.291
##  8  1860 NA     NA    
##  9  1861  9.76  -0.628
## 10  1862  9.90  -0.482
## # ... with 158 more rows
```
…
